Using gander and ellmer – AI-Usage-in-R
…
In RStudio, navigate to Tools > Modify Keyboard Shortcuts > Search "gander". The package author suggests Ctrl+Alt+G (or Ctrl+Cmd+G on macOS).

Restart RStudio to ensure the changes take effect.

Using gander

The gander package speaks with ellmer to “speak with an LLM”. Hence there is a small amount of setup required for gander to deliver its goods.

As per @ref1, let us use the stackoverflow data from the modeldata package to create our graphs.

data("stackoverflow", package = "modeldata")
stackoverflow

# A tibble: 5,594 × 21
   Country        Salary YearsCodedJob OpenSource Hobby CompanySizeNumber Remote
   <fct>           <dbl>         <int>      <dbl> <dbl>             <dbl> <fct> 
 1 United Kingdom 1   e5            20          0     1              5000 Remote
 2 United States  1.3 e5            20          1     1              1000 Remote
 3 United States  1.75e5            16          0     1             10000 Not r…
 4 Germany        6.45e4             4          0     0              1000 Not r…
 5 India          6.64e3             1          0     1              5000 Not r…
 6 United States  6.5 e4             1          0     1                20 Not r…
 7 United States  1.10e5            13          0     1                20 Not r…
 8 Germany        5.38e4             4          1     0              5000 Not r…
 9 United States  1.09e5             7          1     1                20 Not r…
10 Germany        8.39e4            17          1     1                20 Not r…
# ℹ 5,584 more rows
# ℹ 14 more variables: CareerSatisfaction <int>, Data_scientist <dbl>,
#   Database_administrator <dbl>, Desktop_applications_developer <dbl>,
#   Developer_with_stats_math_background <dbl>, DevOps <dbl>,
#   Embedded_developer <dbl>, Graphic_designer <dbl>,
#   Graphics_programming <dbl>, Machine_learning_specialist <dbl>,
#   Mobile_developer <dbl>, Quality_assurance_engineer <dbl>, …
…
